support code - Jingyi Cui's website
…
data <- ces2019_phone

new_data <- na.omit(data[, "q13"])
tibble(glimpse(new_data))

## Rows: 4,021
## Columns: 1
## $ q13 <dbl+lbl> 2, 2, 2, 2, 4, 4, 4, 2, 3, 2, 3, 3, 2, 2, 1, 2, 2, 2, 2, 2, 2…

## # A tibble: 4,021 x 1
##                             q13
##                       <dbl+lbl>
##  1 2 [(2) Fairly satisfied]    
##  2 2 [(2) Fairly satisfied]    
##  3 2 [(2) Fairly satisfied]    
##  4 2 [(2) Fairly satisfied]    
##  5 4 [(4) Not satisfied at all]
##  6 4 [(4) Not satisfied at all]
##  7 4 [(4) Not satisfied at all]
##  8 2 [(2) Fairly satisfied]    
##  9 3 [(3) Not very satisfied]  
## 10 2 [(2) Fairly satisfied]    
## # … with 4,011 more rows
…
